kupac3;12345678;Una;Djordjevic;Zenski;5.1.2001. 00:00:00;Kupac;;;92;Bronzani;False
zelja;12345678;Zeljana;Mirkovic;Zenski;1.1.1998. 00:00:00;Administrator;;;0;Bronzani;False
prodavac3;12345678;Nikola;Nikolic;Muski;11.9.1988. 00:00:00;Prodavac;;;0;Bronzani;False
prodavac;12345678;Prodavac;Prodavcic;Zenski;23.2.1990. 00:00:00;Prodavac;;;0;Bronzani;False
kupac;12345678;Kupac;Kupac;Zenski;11.11.2001. 00:00:00;Kupac;;;0;Bronzani;False
kupac2;12345678;Jovana;Jankovic;Zenski;13.11.1970. 00:00:00;Kupac;;;1433;Bronzani;False
prodavac2;12345678;Marko;Markovic;Muski;13.7.1989. 00:00:00;Prodavac;;;0;Bronzani;False
korisnik;12345678;Niko;Nikic;Muski;28.9.1996. 00:00:00;Kupac;;;1242;Bronzani;False
